cmd_test_2.vcd
$timescale 1us $end
$scope module logic $end
	$var wire 1 D iogB_0 $end
	$var wire 1 C iogB_2 $end
$upscope $end
$enddefinitions $end
$dumpvars
	0D
	0C
$end
#1000 0D
#1001 1C
#1002 0C
#1003 0D
#1004 1C
#1005 0C
#1006 0D
#1007 1C
#1008 0C
#1009 0D
#1010 1C
#1011 0C
#1012 0D
#1013 1C
#1014 0C
#1015 0D
#1016 1C
#1017 0C
#1018 0D
#1019 1C
#1020 0C
#1021 1D
#1022 1C
#1023 0C
#1027 0D
#1028 1C
#1029 0C
#1030 0D
#1031 1C
#1032 0C
#1033 0D
#1034 1C
#1035 0C
#1036 0D
#1037 1C
#1038 0C
#1039 0D
#1040 1C
#1041 0C
#1042 0D
#1043 1C
#1044 0C
#1045 0D
#1046 1C
#1047 0C
#1048 0D
#1049 1C
#1050 0C
#1054 0D
#1055 1C
#1056 0C
#1057 0D
#1058 1C
#1059 0C
#1060 0D
#1061 1C
#1062 0C
#1063 0D
#1064 1C
#1065 0C
#1066 0D
#1067 1C
#1068 0C
#1069 0D
#1070 1C
#1071 0C
#1072 0D
#1073 1C
#1074 0C
#1075 0D
#1076 1C
#1077 0C
#1081 0D
#1082 1C
#1083 0C
#1084 0D
#1085 1C
#1086 0C
#1087 0D
#1088 1C
#1089 0C
#1090 0D
#1091 1C
#1092 0C
#1093 0D
#1094 1C
#1095 0C
#1096 0D
#1097 1C
#1098 0C
#1099 0D
#1100 1C
#1101 0C
#1102 0D
#1103 1C
#1104 0C
#1000000 0D 0C
