input_cmd1.vcd
$timescale 1us $end
$scope module logic $end
	$var wire 1 D iogB_0 $end
	$var wire 1 C iogB_2 $end
$upscope $end
$enddefinitions $end
$dumpvars
	xD
	xC
$end
#5000 0D 0C
#5004 1C
#5005 0C
#5007 1C
#5008 0C
#5010 1C
#5011 0C
#5013 1C
#5014 0C
#5016 1C
#5017 0C
#5019 1C
#5020 0C
#5022 1C
#5023 0C
#5024 1D
#5025 1C
#5026 0C
#5027 0D
#5104 1C
#5105 0C
#5107 1C
#5108 0C
#5110 1C
#5111 0C
#5113 1C
#5114 0C
#5116 1C
#5117 0C
#5119 1C
#5120 0C
#5122 1C
#5123 0C
#5125 1C
#5126 0C
#5204 1C
#5205 0C
#5207 1C
#5208 0C
#5210 1C
#5211 0C
#5213 1C
#5214 0C
#5216 1C
#5217 0C
#5219 1C
#5220 0C
#5222 1C
#5223 0C
#5225 1C
#5226 0C
#1000000 0D 0C