input_spi.vcd
$timescale 1us $end
$scope module logic $end
	$var wire 1 D iogB_0 $end
	$var wire 1 C iogB_2 $end
$upscope $end
$enddefinitions $end
$dumpvars
	xD
	xC
$end
#4986 0D 0C
#4989 1D
#4990 1C
#4991 0C
#4992 0D
#4993 1C
#4994 0C
#4995 1D
#4996 1C
#4997 0C
#4998 0D
#4999 1C
#5000 0C
#5001 1D
#5002 1C
#5003 0C
#5004 0D
#5005 1C
#5006 0C
#5007 1D
#5008 1C
#5009 0C
#5010 0D
#5011 1C
#5012 0C
#1000000 0D 0C