input_i2c.vcd
$timescale 1us $end
$scope module logic $end
	$var wire 1 D iogB_0 $end
	$var wire 1 C iogB_2 $end
$upscope $end
$enddefinitions $end
$dumpvars
	xD
	xC
$end
#5000 1D 1C
#5001 0D
#5002 0C
#5003 1D
#5004 1C
#5005 0C
#5006 0D
#5007 1C
#5008 0C
#5009 1D
#5010 1C
#5011 0C
#5012 0D
#5013 1C
#5014 0C
#5015 1D
#5016 1C
#5017 0C
#5018 0D
#5019 1C
#5020 0C
#5021 1D
#5022 1C
#5023 0C
#5024 0D
#5025 1C
#5026 0C
#5027 1C
#5028 1D
#1000000 0D 0C