traces/cmd_test_5.vcd
$timescale 1us $end
$scope module logic $end
	$var wire 1 D iogB_0 $end
	$var wire 1 C iogB_2 $end
$upscope $end
$enddefinitions $end
$dumpvars
	0D
	0C
$end
#1000 0D
#1001 1C
#1002 0C
#1003 0D
#1004 1C
#1005 0C
#1006 0D
#1007 1C
#1008 0C
#1009 0D
#1010 1C
#1011 0C
#1012 0D
#1013 1C
#1014 0C
#1015 0D
#1016 1C
#1017 0C
#1018 1D
#1019 1C
#1020 0C
#1021 0D
#1022 1C
#1023 0C
#1027 0D
#1028 1C
#1029 0C
#1030 0D
#1031 1C
#1032 0C
#1033 0D
#1034 1C
#1035 0C
#1036 0D
#1037 1C
#1038 0C
#1039 0D
#1040 1C
#1041 0C
#1042 0D
#1043 1C
#1044 0C
#1045 0D
#1046 1C
#1047 0C
#1048 0D
#1049 1C
#1050 0C
#1054 0D
#1055 1C
#1056 0C
#1057 0D
#1058 1C
#1059 0C
#1060 0D
#1061 1C
#1062 0C
#1063 0D
#1064 1C
#1065 0C
#1066 0D
#1067 1C
#1068 0C
#1069 0D
#1070 1C
#1071 0C
#1072 0D
#1073 1C
#1074 0C
#1075 0D
#1076 1C
#1077 0C
#1081 0D
#1082 1C
#1083 0C
#1084 0D
#1085 1C
#1086 0C
#1087 0D
#1088 1C
#1089 0C
#1090 0D
#1091 1C
#1092 0C
#1093 0D
#1094 1C
#1095 0C
#1096 0D
#1097 1C
#1098 0C
#1099 0D
#1100 1C
#1101 0C
#1102 0D
#1103 1C
#1104 0C
#1139 0D
#1140 1C
#1141 0C
#1142 1D
#1143 1C
#1144 0C
#1145 0D
#1146 1C
#1147 0C
#1148 0D
#1149 1C
#1150 0C
#1151 0D
#1152 1C
#1153 0C
#1154 1D
#1155 1C
#1156 0C
#1157 0D
#1158 1C
#1159 0C
#1160 1D
#1161 1C
#1162 0C
#1166 0D
#1167 1C
#1168 0C
#1169 0D
#1170 1C
#1171 0C
#1172 0D
#1173 1C
#1174 0C
#1175 0D
#1176 1C
#1177 0C
#1178 1D
#1179 1C
#1180 0C
#1181 1D
#1182 1C
#1183 0C
#1184 1D
#1185 1C
#1186 0C
#1187 1D
#1188 1C
#1189 0C
#1193 0D
#1194 1C
#1195 0C
#1196 0D
#1197 1C
#1198 0C
#1199 0D
#1200 1C
#1201 0C
#1202 0D
#1203 1C
#1204 0C
#1205 0D
#1206 1C
#1207 0C
#1208 0D
#1209 1C
#1210 0C
#1211 0D
#1212 1C
#1213 0C
#1214 0D
#1215 1C
#1216 0C
#1220 0D
#1221 1C
#1222 0C
#1223 0D
#1224 1C
#1225 0C
#1226 0D
#1227 1C
#1228 0C
#1229 0D
#1230 1C
#1231 0C
#1232 0D
#1233 1C
#1234 0C
#1235 0D
#1236 1C
#1237 0C
#1238 0D
#1239 1C
#1240 0C
#1241 0D
#1242 1C
#1243 0C
#1747 0D
#1748 1C
#1749 0C
#1750 1D
#1751 1C
#1752 0C
#1753 0D
#1754 1C
#1755 0C
#1756 0D
#1757 1C
#1758 0C
#1759 0D
#1760 1C
#1761 0C
#1762 1D
#1763 1C
#1764 0C
#1765 0D
#1766 1C
#1767 0C
#1768 1D
#1769 1C
#1770 0C
#1774 0D
#1775 1C
#1776 0C
#1777 0D
#1778 1C
#1779 0C
#1780 0D
#1781 1C
#1782 0C
#1783 0D
#1784 1C
#1785 0C
#1786 1D
#1787 1C
#1788 0C
#1789 1D
#1790 1C
#1791 0C
#1792 1D
#1793 1C
#1794 0C
#1795 0D
#1796 1C
#1797 0C
#1801 0D
#1802 1C
#1803 0C
#1804 0D
#1805 1C
#1806 0C
#1807 0D
#1808 1C
#1809 0C
#1810 0D
#1811 1C
#1812 0C
#1813 0D
#1814 1C
#1815 0C
#1816 0D
#1817 1C
#1818 0C
#1819 0D
#1820 1C
#1821 0C
#1822 0D
#1823 1C
#1824 0C
#1828 0D
#1829 1C
#1830 0C
#1831 0D
#1832 1C
#1833 0C
#1834 0D
#1835 1C
#1836 0C
#1837 0D
#1838 1C
#1839 0C
#1840 0D
#1841 1C
#1842 0C
#1843 0D
#1844 1C
#1845 0C
#1846 0D
#1847 1C
#1848 0C
#1849 0D
#1850 1C
#1851 0C
#2355 0D
#2356 1C
#2357 0C
#2358 1D
#2359 1C
#2360 0C
#2361 0D
#2362 1C
#2363 0C
#2364 0D
#2365 1C
#2366 0C
#2367 0D
#2368 1C
#2369 0C
#2370 1D
#2371 1C
#2372 0C
#2373 0D
#2374 1C
#2375 0C
#2376 1D
#2377 1C
#2378 0C
#2382 0D
#2383 1C
#2384 0C
#2385 0D
#2386 1C
#2387 0C
#2388 0D
#2389 1C
#2390 0C
#2391 0D
#2392 1C
#2393 0C
#2394 1D
#2395 1C
#2396 0C
#2397 1D
#2398 1C
#2399 0C
#2400 0D
#2401 1C
#2402 0C
#2403 1D
#2404 1C
#2405 0C
#2409 0D
#2410 1C
#2411 0C
#2412 0D
#2413 1C
#2414 0C
#2415 0D
#2416 1C
#2417 0C
#2418 0D
#2419 1C
#2420 0C
#2421 0D
#2422 1C
#2423 0C
#2424 0D
#2425 1C
#2426 0C
#2427 0D
#2428 1C
#2429 0C
#2430 0D
#2431 1C
#2432 0C
#2436 0D
#2437 1C
#2438 0C
#2439 0D
#2440 1C
#2441 0C
#2442 0D
#2443 1C
#2444 0C
#2445 0D
#2446 1C
#2447 0C
#2448 0D
#2449 1C
#2450 0C
#2451 0D
#2452 1C
#2453 0C
#2454 0D
#2455 1C
#2456 0C
#2457 0D
#2458 1C
#2459 0C
#2963 0D
#2964 1C
#2965 0C
#2966 1D
#2967 1C
#2968 0C
#2969 0D
#2970 1C
#2971 0C
#2972 0D
#2973 1C
#2974 0C
#2975 0D
#2976 1C
#2977 0C
#2978 1D
#2979 1C
#2980 0C
#2981 0D
#2982 1C
#2983 0C
#2984 1D
#2985 1C
#2986 0C
#2990 0D
#2991 1C
#2992 0C
#2993 0D
#2994 1C
#2995 0C
#2996 0D
#2997 1C
#2998 0C
#2999 0D
#3000 1C
#3001 0C
#3002 1D
#3003 1C
#3004 0C
#3005 1D
#3006 1C
#3007 0C
#3008 0D
#3009 1C
#3010 0C
#3011 0D
#3012 1C
#3013 0C
#3017 0D
#3018 1C
#3019 0C
#3020 0D
#3021 1C
#3022 0C
#3023 0D
#3024 1C
#3025 0C
#3026 0D
#3027 1C
#3028 0C
#3029 0D
#3030 1C
#3031 0C
#3032 0D
#3033 1C
#3034 0C
#3035 0D
#3036 1C
#3037 0C
#3038 0D
#3039 1C
#3040 0C
#3044 0D
#3045 1C
#3046 0C
#3047 0D
#3048 1C
#3049 0C
#3050 0D
#3051 1C
#3052 0C
#3053 0D
#3054 1C
#3055 0C
#3056 0D
#3057 1C
#3058 0C
#3059 0D
#3060 1C
#3061 0C
#3062 0D
#3063 1C
#3064 0C
#3065 0D
#3066 1C
#3067 0C
#3571 0D
#3572 1C
#3573 0C
#3574 1D
#3575 1C
#3576 0C
#3577 0D
#3578 1C
#3579 0C
#3580 0D
#3581 1C
#3582 0C
#3583 0D
#3584 1C
#3585 0C
#3586 1D
#3587 1C
#3588 0C
#3589 0D
#3590 1C
#3591 0C
#3592 1D
#3593 1C
#3594 0C
#3598 0D
#3599 1C
#3600 0C
#3601 0D
#3602 1C
#3603 0C
#3604 0D
#3605 1C
#3606 0C
#3607 0D
#3608 1C
#3609 0C
#3610 1D
#3611 1C
#3612 0C
#3613 0D
#3614 1C
#3615 0C
#3616 1D
#3617 1C
#3618 0C
#3619 1D
#3620 1C
#3621 0C
#3625 0D
#3626 1C
#3627 0C
#3628 0D
#3629 1C
#3630 0C
#3631 0D
#3632 1C
#3633 0C
#3634 0D
#3635 1C
#3636 0C
#3637 0D
#3638 1C
#3639 0C
#3640 0D
#3641 1C
#3642 0C
#3643 0D
#3644 1C
#3645 0C
#3646 0D
#3647 1C
#3648 0C
#3652 0D
#3653 1C
#3654 0C
#3655 0D
#3656 1C
#3657 0C
#3658 0D
#3659 1C
#3660 0C
#3661 0D
#3662 1C
#3663 0C
#3664 0D
#3665 1C
#3666 0C
#3667 0D
#3668 1C
#3669 0C
#3670 0D
#3671 1C
#3672 0C
#3673 0D
#3674 1C
#3675 0C
#4179 0D
#4180 1C
#4181 0C
#4182 1D
#4183 1C
#4184 0C
#4185 0D
#4186 1C
#4187 0C
#4188 0D
#4189 1C
#4190 0C
#4191 0D
#4192 1C
#4193 0C
#4194 1D
#4195 1C
#4196 0C
#4197 0D
#4198 1C
#4199 0C
#4200 1D
#4201 1C
#4202 0C
#4206 0D
#4207 1C
#4208 0C
#4209 0D
#4210 1C
#4211 0C
#4212 0D
#4213 1C
#4214 0C
#4215 0D
#4216 1C
#4217 0C
#4218 1D
#4219 1C
#4220 0C
#4221 0D
#4222 1C
#4223 0C
#4224 1D
#4225 1C
#4226 0C
#4227 0D
#4228 1C
#4229 0C
#4233 0D
#4234 1C
#4235 0C
#4236 0D
#4237 1C
#4238 0C
#4239 0D
#4240 1C
#4241 0C
#4242 0D
#4243 1C
#4244 0C
#4245 0D
#4246 1C
#4247 0C
#4248 0D
#4249 1C
#4250 0C
#4251 0D
#4252 1C
#4253 0C
#4254 0D
#4255 1C
#4256 0C
#4260 0D
#4261 1C
#4262 0C
#4263 0D
#4264 1C
#4265 0C
#4266 0D
#4267 1C
#4268 0C
#4269 0D
#4270 1C
#4271 0C
#4272 0D
#4273 1C
#4274 0C
#4275 0D
#4276 1C
#4277 0C
#4278 0D
#4279 1C
#4280 0C
#4281 0D
#4282 1C
#4283 0C
#4787 0D
#4788 1C
#4789 0C
#4790 1D
#4791 1C
#4792 0C
#4793 0D
#4794 1C
#4795 0C
#4796 0D
#4797 1C
#4798 0C
#4799 0D
#4800 1C
#4801 0C
#4802 1D
#4803 1C
#4804 0C
#4805 0D
#4806 1C
#4807 0C
#4808 1D
#4809 1C
#4810 0C
#4814 0D
#4815 1C
#4816 0C
#4817 0D
#4818 1C
#4819 0C
#4820 0D
#4821 1C
#4822 0C
#4823 0D
#4824 1C
#4825 0C
#4826 1D
#4827 1C
#4828 0C
#4829 0D
#4830 1C
#4831 0C
#4832 0D
#4833 1C
#4834 0C
#4835 1D
#4836 1C
#4837 0C
#4841 0D
#4842 1C
#4843 0C
#4844 0D
#4845 1C
#4846 0C
#4847 0D
#4848 1C
#4849 0C
#4850 0D
#4851 1C
#4852 0C
#4853 0D
#4854 1C
#4855 0C
#4856 0D
#4857 1C
#4858 0C
#4859 0D
#4860 1C
#4861 0C
#4862 0D
#4863 1C
#4864 0C
#4868 0D
#4869 1C
#4870 0C
#4871 0D
#4872 1C
#4873 0C
#4874 0D
#4875 1C
#4876 0C
#4877 0D
#4878 1C
#4879 0C
#4880 0D
#4881 1C
#4882 0C
#4883 0D
#4884 1C
#4885 0C
#4886 0D
#4887 1C
#4888 0C
#4889 0D
#4890 1C
#4891 0C
#5395 0D
#5396 1C
#5397 0C
#5398 1D
#5399 1C
#5400 0C
#5401 0D
#5402 1C
#5403 0C
#5404 0D
#5405 1C
#5406 0C
#5407 0D
#5408 1C
#5409 0C
#5410 1D
#5411 1C
#5412 0C
#5413 0D
#5414 1C
#5415 0C
#5416 1D
#5417 1C
#5418 0C
#5422 0D
#5423 1C
#5424 0C
#5425 0D
#5426 1C
#5427 0C
#5428 0D
#5429 1C
#5430 0C
#5431 0D
#5432 1C
#5433 0C
#5434 1D
#5435 1C
#5436 0C
#5437 0D
#5438 1C
#5439 0C
#5440 0D
#5441 1C
#5442 0C
#5443 0D
#5444 1C
#5445 0C
#5449 0D
#5450 1C
#5451 0C
#5452 0D
#5453 1C
#5454 0C
#5455 0D
#5456 1C
#5457 0C
#5458 0D
#5459 1C
#5460 0C
#5461 0D
#5462 1C
#5463 0C
#5464 0D
#5465 1C
#5466 0C
#5467 0D
#5468 1C
#5469 0C
#5470 0D
#5471 1C
#5472 0C
#5476 0D
#5477 1C
#5478 0C
#5479 0D
#5480 1C
#5481 0C
#5482 0D
#5483 1C
#5484 0C
#5485 0D
#5486 1C
#5487 0C
#5488 0D
#5489 1C
#5490 0C
#5491 0D
#5492 1C
#5493 0C
#5494 0D
#5495 1C
#5496 0C
#5497 0D
#5498 1C
#5499 0C
#6003 0D
#6004 1C
#6005 0C
#6006 1D
#6007 1C
#6008 0C
#6009 0D
#6010 1C
#6011 0C
#6012 0D
#6013 1C
#6014 0C
#6015 0D
#6016 1C
#6017 0C
#6018 1D
#6019 1C
#6020 0C
#6021 0D
#6022 1C
#6023 0C
#6024 1D
#6025 1C
#6026 0C
#6030 0D
#6031 1C
#6032 0C
#6033 0D
#6034 1C
#6035 0C
#6036 0D
#6037 1C
#6038 0C
#6039 0D
#6040 1C
#6041 0C
#6042 0D
#6043 1C
#6044 0C
#6045 1D
#6046 1C
#6047 0C
#6048 1D
#6049 1C
#6050 0C
#6051 1D
#6052 1C
#6053 0C
#6057 0D
#6058 1C
#6059 0C
#6060 0D
#6061 1C
#6062 0C
#6063 0D
#6064 1C
#6065 0C
#6066 0D
#6067 1C
#6068 0C
#6069 0D
#6070 1C
#6071 0C
#6072 0D
#6073 1C
#6074 0C
#6075 0D
#6076 1C
#6077 0C
#6078 0D
#6079 1C
#6080 0C
#6084 0D
#6085 1C
#6086 0C
#6087 0D
#6088 1C
#6089 0C
#6090 0D
#6091 1C
#6092 0C
#6093 0D
#6094 1C
#6095 0C
#6096 0D
#6097 1C
#6098 0C
#6099 0D
#6100 1C
#6101 0C
#6102 0D
#6103 1C
#6104 0C
#6105 0D
#6106 1C
#6107 0C
#6611 0D
#6612 1C
#6613 0C
#6614 1D
#6615 1C
#6616 0C
#6617 0D
#6618 1C
#6619 0C
#6620 0D
#6621 1C
#6622 0C
#6623 0D
#6624 1C
#6625 0C
#6626 1D
#6627 1C
#6628 0C
#6629 0D
#6630 1C
#6631 0C
#6632 1D
#6633 1C
#6634 0C
#6638 0D
#6639 1C
#6640 0C
#6641 0D
#6642 1C
#6643 0C
#6644 0D
#6645 1C
#6646 0C
#6647 0D
#6648 1C
#6649 0C
#6650 0D
#6651 1C
#6652 0C
#6653 1D
#6654 1C
#6655 0C
#6656 1D
#6657 1C
#6658 0C
#6659 0D
#6660 1C
#6661 0C
#6665 0D
#6666 1C
#6667 0C
#6668 0D
#6669 1C
#6670 0C
#6671 0D
#6672 1C
#6673 0C
#6674 0D
#6675 1C
#6676 0C
#6677 0D
#6678 1C
#6679 0C
#6680 0D
#6681 1C
#6682 0C
#6683 0D
#6684 1C
#6685 0C
#6686 0D
#6687 1C
#6688 0C
#6692 0D
#6693 1C
#6694 0C
#6695 0D
#6696 1C
#6697 0C
#6698 0D
#6699 1C
#6700 0C
#6701 0D
#6702 1C
#6703 0C
#6704 0D
#6705 1C
#6706 0C
#6707 0D
#6708 1C
#6709 0C
#6710 0D
#6711 1C
#6712 0C
#6713 0D
#6714 1C
#6715 0C
#7219 0D
#7220 1C
#7221 0C
#7222 1D
#7223 1C
#7224 0C
#7225 0D
#7226 1C
#7227 0C
#7228 0D
#7229 1C
#7230 0C
#7231 0D
#7232 1C
#7233 0C
#7234 1D
#7235 1C
#7236 0C
#7237 0D
#7238 1C
#7239 0C
#7240 1D
#7241 1C
#7242 0C
#7246 0D
#7247 1C
#7248 0C
#7249 0D
#7250 1C
#7251 0C
#7252 0D
#7253 1C
#7254 0C
#7255 0D
#7256 1C
#7257 0C
#7258 0D
#7259 1C
#7260 0C
#7261 1D
#7262 1C
#7263 0C
#7264 0D
#7265 1C
#7266 0C
#7267 1D
#7268 1C
#7269 0C
#7273 0D
#7274 1C
#7275 0C
#7276 0D
#7277 1C
#7278 0C
#7279 0D
#7280 1C
#7281 0C
#7282 0D
#7283 1C
#7284 0C
#7285 0D
#7286 1C
#7287 0C
#7288 0D
#7289 1C
#7290 0C
#7291 0D
#7292 1C
#7293 0C
#7294 0D
#7295 1C
#7296 0C
#7300 0D
#7301 1C
#7302 0C
#7303 0D
#7304 1C
#7305 0C
#7306 0D
#7307 1C
#7308 0C
#7309 0D
#7310 1C
#7311 0C
#7312 0D
#7313 1C
#7314 0C
#7315 0D
#7316 1C
#7317 0C
#7318 0D
#7319 1C
#7320 0C
#7321 0D
#7322 1C
#7323 0C
#7827 0D
#7828 1C
#7829 0C
#7830 1D
#7831 1C
#7832 0C
#7833 0D
#7834 1C
#7835 0C
#7836 0D
#7837 1C
#7838 0C
#7839 0D
#7840 1C
#7841 0C
#7842 1D
#7843 1C
#7844 0C
#7845 0D
#7846 1C
#7847 0C
#7848 1D
#7849 1C
#7850 0C
#7854 0D
#7855 1C
#7856 0C
#7857 0D
#7858 1C
#7859 0C
#7860 0D
#7861 1C
#7862 0C
#7863 0D
#7864 1C
#7865 0C
#7866 0D
#7867 1C
#7868 0C
#7869 1D
#7870 1C
#7871 0C
#7872 0D
#7873 1C
#7874 0C
#7875 0D
#7876 1C
#7877 0C
#7881 0D
#7882 1C
#7883 0C
#7884 0D
#7885 1C
#7886 0C
#7887 0D
#7888 1C
#7889 0C
#7890 0D
#7891 1C
#7892 0C
#7893 0D
#7894 1C
#7895 0C
#7896 0D
#7897 1C
#7898 0C
#7899 0D
#7900 1C
#7901 0C
#7902 0D
#7903 1C
#7904 0C
#7908 0D
#7909 1C
#7910 0C
#7911 0D
#7912 1C
#7913 0C
#7914 0D
#7915 1C
#7916 0C
#7917 0D
#7918 1C
#7919 0C
#7920 0D
#7921 1C
#7922 0C
#7923 0D
#7924 1C
#7925 0C
#7926 0D
#7927 1C
#7928 0C
#7929 0D
#7930 1C
#7931 0C
#8435 0D
#8436 1C
#8437 0C
#8438 1D
#8439 1C
#8440 0C
#8441 0D
#8442 1C
#8443 0C
#8444 0D
#8445 1C
#8446 0C
#8447 0D
#8448 1C
#8449 0C
#8450 1D
#8451 1C
#8452 0C
#8453 0D
#8454 1C
#8455 0C
#8456 1D
#8457 1C
#8458 0C
#8462 0D
#8463 1C
#8464 0C
#8465 0D
#8466 1C
#8467 0C
#8468 0D
#8469 1C
#8470 0C
#8471 0D
#8472 1C
#8473 0C
#8474 0D
#8475 1C
#8476 0C
#8477 0D
#8478 1C
#8479 0C
#8480 1D
#8481 1C
#8482 0C
#8483 1D
#8484 1C
#8485 0C
#8489 0D
#8490 1C
#8491 0C
#8492 0D
#8493 1C
#8494 0C
#8495 0D
#8496 1C
#8497 0C
#8498 0D
#8499 1C
#8500 0C
#8501 0D
#8502 1C
#8503 0C
#8504 0D
#8505 1C
#8506 0C
#8507 0D
#8508 1C
#8509 0C
#8510 0D
#8511 1C
#8512 0C
#8516 0D
#8517 1C
#8518 0C
#8519 0D
#8520 1C
#8521 0C
#8522 0D
#8523 1C
#8524 0C
#8525 0D
#8526 1C
#8527 0C
#8528 0D
#8529 1C
#8530 0C
#8531 0D
#8532 1C
#8533 0C
#8534 0D
#8535 1C
#8536 0C
#8537 0D
#8538 1C
#8539 0C
#9043 0D
#9044 1C
#9045 0C
#9046 1D
#9047 1C
#9048 0C
#9049 0D
#9050 1C
#9051 0C
#9052 0D
#9053 1C
#9054 0C
#9055 0D
#9056 1C
#9057 0C
#9058 1D
#9059 1C
#9060 0C
#9061 0D
#9062 1C
#9063 0C
#9064 1D
#9065 1C
#9066 0C
#9070 0D
#9071 1C
#9072 0C
#9073 0D
#9074 1C
#9075 0C
#9076 0D
#9077 1C
#9078 0C
#9079 0D
#9080 1C
#9081 0C
#9082 0D
#9083 1C
#9084 0C
#9085 0D
#9086 1C
#9087 0C
#9088 1D
#9089 1C
#9090 0C
#9091 0D
#9092 1C
#9093 0C
#9097 0D
#9098 1C
#9099 0C
#9100 0D
#9101 1C
#9102 0C
#9103 0D
#9104 1C
#9105 0C
#9106 0D
#9107 1C
#9108 0C
#9109 0D
#9110 1C
#9111 0C
#9112 0D
#9113 1C
#9114 0C
#9115 0D
#9116 1C
#9117 0C
#9118 0D
#9119 1C
#9120 0C
#9124 0D
#9125 1C
#9126 0C
#9127 0D
#9128 1C
#9129 0C
#9130 0D
#9131 1C
#9132 0C
#9133 0D
#9134 1C
#9135 0C
#9136 0D
#9137 1C
#9138 0C
#9139 0D
#9140 1C
#9141 0C
#9142 0D
#9143 1C
#9144 0C
#9145 0D
#9146 1C
#9147 0C
#9651 0D
#9652 1C
#9653 0C
#9654 1D
#9655 1C
#9656 0C
#9657 0D
#9658 1C
#9659 0C
#9660 0D
#9661 1C
#9662 0C
#9663 0D
#9664 1C
#9665 0C
#9666 1D
#9667 1C
#9668 0C
#9669 0D
#9670 1C
#9671 0C
#9672 1D
#9673 1C
#9674 0C
#9678 0D
#9679 1C
#9680 0C
#9681 0D
#9682 1C
#9683 0C
#9684 0D
#9685 1C
#9686 0C
#9687 0D
#9688 1C
#9689 0C
#9690 0D
#9691 1C
#9692 0C
#9693 0D
#9694 1C
#9695 0C
#9696 0D
#9697 1C
#9698 0C
#9699 1D
#9700 1C
#9701 0C
#9705 0D
#9706 1C
#9707 0C
#9708 0D
#9709 1C
#9710 0C
#9711 0D
#9712 1C
#9713 0C
#9714 0D
#9715 1C
#9716 0C
#9717 0D
#9718 1C
#9719 0C
#9720 0D
#9721 1C
#9722 0C
#9723 0D
#9724 1C
#9725 0C
#9726 0D
#9727 1C
#9728 0C
#9732 0D
#9733 1C
#9734 0C
#9735 0D
#9736 1C
#9737 0C
#9738 0D
#9739 1C
#9740 0C
#9741 0D
#9742 1C
#9743 0C
#9744 0D
#9745 1C
#9746 0C
#9747 0D
#9748 1C
#9749 0C
#9750 0D
#9751 1C
#9752 0C
#9753 0D
#9754 1C
#9755 0C
#10259 0D
#10260 1C
#10261 0C
#10262 1D
#10263 1C
#10264 0C
#10265 0D
#10266 1C
#10267 0C
#10268 0D
#10269 1C
#10270 0C
#10271 0D
#10272 1C
#10273 0C
#10274 1D
#10275 1C
#10276 0C
#10277 0D
#10278 1C
#10279 0C
#10280 1D
#10281 1C
#10282 0C
#10286 0D
#10287 1C
#10288 0C
#10289 0D
#10290 1C
#10291 0C
#10292 0D
#10293 1C
#10294 0C
#10295 0D
#10296 1C
#10297 0C
#10298 0D
#10299 1C
#10300 0C
#10301 0D
#10302 1C
#10303 0C
#10304 0D
#10305 1C
#10306 0C
#10307 0D
#10308 1C
#10309 0C
#10313 0D
#10314 1C
#10315 0C
#10316 0D
#10317 1C
#10318 0C
#10319 0D
#10320 1C
#10321 0C
#10322 0D
#10323 1C
#10324 0C
#10325 0D
#10326 1C
#10327 0C
#10328 0D
#10329 1C
#10330 0C
#10331 0D
#10332 1C
#10333 0C
#10334 0D
#10335 1C
#10336 0C
#10340 0D
#10341 1C
#10342 0C
#10343 0D
#10344 1C
#10345 0C
#10346 0D
#10347 1C
#10348 0C
#10349 0D
#10350 1C
#10351 0C
#10352 0D
#10353 1C
#10354 0C
#10355 0D
#10356 1C
#10357 0C
#10358 0D
#10359 1C
#10360 0C
#10361 0D
#10362 1C
#10363 0C
#10867 0D
#10868 1C
#10869 0C
#10870 1D
#10871 1C
#10872 0C
#10873 0D
#10874 1C
#10875 0C
#10876 0D
#10877 1C
#10878 0C
#10879 0D
#10880 1C
#10881 0C
#10882 1D
#10883 1C
#10884 0C
#10885 0D
#10886 1C
#10887 0C
#10888 1D
#10889 1C
#10890 0C
#10894 0D
#10895 1C
#10896 0C
#10897 0D
#10898 1C
#10899 0C
#10900 0D
#10901 1C
#10902 0C
#10903 0D
#10904 1C
#10905 0C
#10906 0D
#10907 1C
#10908 0C
#10909 0D
#10910 1C
#10911 0C
#10912 0D
#10913 1C
#10914 0C
#10915 0D
#10916 1C
#10917 0C
#10921 0D
#10922 1C
#10923 0C
#10924 0D
#10925 1C
#10926 0C
#10927 0D
#10928 1C
#10929 0C
#10930 0D
#10931 1C
#10932 0C
#10933 0D
#10934 1C
#10935 0C
#10936 0D
#10937 1C
#10938 0C
#10939 0D
#10940 1C
#10941 0C
#10942 0D
#10943 1C
#10944 0C
#10948 0D
#10949 1C
#10950 0C
#10951 0D
#10952 1C
#10953 0C
#10954 0D
#10955 1C
#10956 0C
#10957 0D
#10958 1C
#10959 0C
#10960 0D
#10961 1C
#10962 0C
#10963 0D
#10964 1C
#10965 0C
#10966 0D
#10967 1C
#10968 0C
#10969 0D
#10970 1C
#10971 0C
#11475 0D
#11476 1C
#11477 0C
#11478 1D
#11479 1C
#11480 0C
#11481 0D
#11482 1C
#11483 0C
#11484 0D
#11485 1C
#11486 0C
#11487 0D
#11488 1C
#11489 0C
#11490 1D
#11491 1C
#11492 0C
#11493 0D
#11494 1C
#11495 0C
#11496 1D
#11497 1C
#11498 0C
#11502 0D
#11503 1C
#11504 0C
#11505 0D
#11506 1C
#11507 0C
#11508 0D
#11509 1C
#11510 0C
#11511 0D
#11512 1C
#11513 0C
#11514 0D
#11515 1C
#11516 0C
#11517 0D
#11518 1C
#11519 0C
#11520 0D
#11521 1C
#11522 0C
#11523 1D
#11524 1C
#11525 0C
#11529 0D
#11530 1C
#11531 0C
#11532 0D
#11533 1C
#11534 0C
#11535 0D
#11536 1C
#11537 0C
#11538 0D
#11539 1C
#11540 0C
#11541 0D
#11542 1C
#11543 0C
#11544 0D
#11545 1C
#11546 0C
#11547 0D
#11548 1C
#11549 0C
#11550 0D
#11551 1C
#11552 0C
#11556 0D
#11557 1C
#11558 0C
#11559 0D
#11560 1C
#11561 0C
#11562 0D
#11563 1C
#11564 0C
#11565 0D
#11566 1C
#11567 0C
#11568 0D
#11569 1C
#11570 0C
#11571 0D
#11572 1C
#11573 0C
#11574 0D
#11575 1C
#11576 0C
#11577 0D
#11578 1C
#11579 0C
#12083 0D
#12084 1C
#12085 0C
#12086 1D
#12087 1C
#12088 0C
#12089 0D
#12090 1C
#12091 0C
#12092 0D
#12093 1C
#12094 0C
#12095 0D
#12096 1C
#12097 0C
#12098 1D
#12099 1C
#12100 0C
#12101 0D
#12102 1C
#12103 0C
#12104 1D
#12105 1C
#12106 0C
#12110 0D
#12111 1C
#12112 0C
#12113 0D
#12114 1C
#12115 0C
#12116 0D
#12117 1C
#12118 0C
#12119 0D
#12120 1C
#12121 0C
#12122 0D
#12123 1C
#12124 0C
#12125 0D
#12126 1C
#12127 0C
#12128 1D
#12129 1C
#12130 0C
#12131 0D
#12132 1C
#12133 0C
#12137 0D
#12138 1C
#12139 0C
#12140 0D
#12141 1C
#12142 0C
#12143 0D
#12144 1C
#12145 0C
#12146 0D
#12147 1C
#12148 0C
#12149 0D
#12150 1C
#12151 0C
#12152 0D
#12153 1C
#12154 0C
#12155 0D
#12156 1C
#12157 0C
#12158 0D
#12159 1C
#12160 0C
#12164 0D
#12165 1C
#12166 0C
#12167 0D
#12168 1C
#12169 0C
#12170 0D
#12171 1C
#12172 0C
#12173 0D
#12174 1C
#12175 0C
#12176 0D
#12177 1C
#12178 0C
#12179 0D
#12180 1C
#12181 0C
#12182 0D
#12183 1C
#12184 0C
#12185 0D
#12186 1C
#12187 0C
#12691 0D
#12692 1C
#12693 0C
#12694 1D
#12695 1C
#12696 0C
#12697 0D
#12698 1C
#12699 0C
#12700 0D
#12701 1C
#12702 0C
#12703 0D
#12704 1C
#12705 0C
#12706 1D
#12707 1C
#12708 0C
#12709 0D
#12710 1C
#12711 0C
#12712 1D
#12713 1C
#12714 0C
#12718 0D
#12719 1C
#12720 0C
#12721 0D
#12722 1C
#12723 0C
#12724 0D
#12725 1C
#12726 0C
#12727 0D
#12728 1C
#12729 0C
#12730 0D
#12731 1C
#12732 0C
#12733 0D
#12734 1C
#12735 0C
#12736 1D
#12737 1C
#12738 0C
#12739 1D
#12740 1C
#12741 0C
#12745 0D
#12746 1C
#12747 0C
#12748 0D
#12749 1C
#12750 0C
#12751 0D
#12752 1C
#12753 0C
#12754 0D
#12755 1C
#12756 0C
#12757 0D
#12758 1C
#12759 0C
#12760 0D
#12761 1C
#12762 0C
#12763 0D
#12764 1C
#12765 0C
#12766 0D
#12767 1C
#12768 0C
#12772 0D
#12773 1C
#12774 0C
#12775 0D
#12776 1C
#12777 0C
#12778 0D
#12779 1C
#12780 0C
#12781 0D
#12782 1C
#12783 0C
#12784 0D
#12785 1C
#12786 0C
#12787 0D
#12788 1C
#12789 0C
#12790 0D
#12791 1C
#12792 0C
#12793 0D
#12794 1C
#12795 0C
#13299 0D
#13300 1C
#13301 0C
#13302 1D
#13303 1C
#13304 0C
#13305 0D
#13306 1C
#13307 0C
#13308 0D
#13309 1C
#13310 0C
#13311 0D
#13312 1C
#13313 0C
#13314 1D
#13315 1C
#13316 0C
#13317 0D
#13318 1C
#13319 0C
#13320 1D
#13321 1C
#13322 0C
#13326 0D
#13327 1C
#13328 0C
#13329 0D
#13330 1C
#13331 0C
#13332 0D
#13333 1C
#13334 0C
#13335 0D
#13336 1C
#13337 0C
#13338 0D
#13339 1C
#13340 0C
#13341 1D
#13342 1C
#13343 0C
#13344 0D
#13345 1C
#13346 0C
#13347 0D
#13348 1C
#13349 0C
#13353 0D
#13354 1C
#13355 0C
#13356 0D
#13357 1C
#13358 0C
#13359 0D
#13360 1C
#13361 0C
#13362 0D
#13363 1C
#13364 0C
#13365 0D
#13366 1C
#13367 0C
#13368 0D
#13369 1C
#13370 0C
#13371 0D
#13372 1C
#13373 0C
#13374 0D
#13375 1C
#13376 0C
#13380 0D
#13381 1C
#13382 0C
#13383 0D
#13384 1C
#13385 0C
#13386 0D
#13387 1C
#13388 0C
#13389 0D
#13390 1C
#13391 0C
#13392 0D
#13393 1C
#13394 0C
#13395 0D
#13396 1C
#13397 0C
#13398 0D
#13399 1C
#13400 0C
#13401 0D
#13402 1C
#13403 0C
#13907 0D
#13908 1C
#13909 0C
#13910 1D
#13911 1C
#13912 0C
#13913 0D
#13914 1C
#13915 0C
#13916 0D
#13917 1C
#13918 0C
#13919 0D
#13920 1C
#13921 0C
