traces/commit_test.vcd
$timescale 1us $end
$scope module logic $end
	$var wire 1 D iogB_0 $end
	$var wire 1 C iogB_2 $end
$upscope $end
$enddefinitions $end
$dumpvars
	0D
	0C
$end
#1000 0D
#1001 1C
#1002 0C
#1003 0D
#1004 1C
#1005 0C
#1006 0D
#1007 1C
#1008 0C
#1009 0D
#1010 1C
#1011 0C
#1012 0D
#1013 1C
#1014 0C
#1015 1D
#1016 1C
#1017 0C
#1018 1D
#1019 1C
#1020 0C
#1021 1D
#1022 1C
#1023 0C
#1027 0D
#1028 1C
#1029 0C
#1030 0D
#1031 1C
#1032 0C
#1033 0D
#1034 1C
#1035 0C
#1036 0D
#1037 1C
#1038 0C
#1039 0D
#1040 1C
#1041 0C
#1042 0D
#1043 1C
#1044 0C
#1045 0D
#1046 1C
#1047 0C
#1048 1D
#1049 1C
#1050 0C
#1054 0D
#1055 1C
#1056 0C
#1057 0D
#1058 1C
#1059 0C
#1060 0D
#1061 1C
#1062 0C
#1063 0D
#1064 1C
#1065 0C
#1066 0D
#1067 1C
#1068 0C
#1069 0D
#1070 1C
#1071 0C
#1072 0D
#1073 1C
#1074 0C
#1075 0D
#1076 1C
#1077 0C
#1081 0D
#1082 1C
#1083 0C
#1084 0D
#1085 1C
#1086 0C
#1087 0D
#1088 1C
#1089 0C
#1090 0D
#1091 1C
#1092 0C
#1093 0D
#1094 1C
#1095 0C
#1096 0D
#1097 1C
#1098 0C
#1099 0D
#1100 1C
#1101 0C
#1102 0D
#1103 1C
#1104 0C
#1790 0D
#1791 1C
#1792 0C
#1793 0D
#1794 1C
#1795 0C
#1796 0D
#1797 1C
#1798 0C
#1799 0D
#1800 1C
#1801 0C
#1802 0D
#1803 1C
#1804 0C
#1805 0D
#1806 1C
#1807 0C
#1808 0D
#1809 1C
#1810 0C
#1811 1D
#1812 1C
#1813 0C
#1817 0D
#1818 1C
#1819 0C
#1820 0D
#1821 1C
#1822 0C
#1823 0D
#1824 1C
#1825 0C
#1826 0D
#1827 1C
#1828 0C
#1829 0D
#1830 1C
#1831 0C
#1832 0D
#1833 1C
#1834 0C
#1835 0D
#1836 1C
#1837 0C
#1838 0D
#1839 1C
#1840 0C
#1844 0D
#1845 1C
#1846 0C
#1847 0D
#1848 1C
#1849 0C
#1850 0D
#1851 1C
#1852 0C
#1853 0D
#1854 1C
#1855 0C
#1856 0D
#1857 1C
#1858 0C
#1859 0D
#1860 1C
#1861 0C
#1862 0D
#1863 1C
#1864 0C
#1865 0D
#1866 1C
#1867 0C
#1871 0D
#1872 1C
#1873 0C
#1874 0D
#1875 1C
#1876 0C
#1877 0D
#1878 1C
#1879 0C
#1880 0D
#1881 1C
#1882 0C
#1883 0D
#1884 1C
#1885 0C
#1886 0D
#1887 1C
#1888 0C
#1889 0D
#1890 1C
#1891 0C
#1892 0D
#1893 1C
#1894 0C
#5060 0D
#5061 1C
#5062 0C
#5063 0D
#5064 1C
#5065 0C
#5066 0D
#5067 1C
#5068 0C
#5069 0D
#5070 1C
#5071 0C
#5072 0D
#5073 1C
#5074 0C
#5075 1D
#5076 1C
#5077 0C
#5078 1D
#5079 1C
#5080 0C
#5081 1D
#5082 1C
#5083 0C
#5087 0D
#5088 1C
#5089 0C
#5090 0D
#5091 1C
#5092 0C
#5093 0D
#5094 1C
#5095 0C
#5096 0D
#5097 1C
#5098 0C
#5099 0D
#5100 1C
#5101 0C
#5102 0D
#5103 1C
#5104 0C
#5105 1D
#5106 1C
#5107 0C
#5108 0D
#5109 1C
#5110 0C
#5114 0D
#5115 1C
#5116 0C
#5117 0D
#5118 1C
#5119 0C
#5120 0D
#5121 1C
#5122 0C
#5123 0D
#5124 1C
#5125 0C
#5126 0D
#5127 1C
#5128 0C
#5129 0D
#5130 1C
#5131 0C
#5132 0D
#5133 1C
#5134 0C
#5135 0D
#5136 1C
#5137 0C
#5141 0D
#5142 1C
#5143 0C
#5144 0D
#5145 1C
#5146 0C
#5147 0D
#5148 1C
#5149 0C
#5150 0D
#5151 1C
#5152 0C
#5153 0D
#5154 1C
#5155 0C
#5156 0D
#5157 1C
#5158 0C
#5159 0D
#5160 1C
#5161 0C
#5162 0D
#5163 1C
#5164 0C
#5850 0D
#5851 1C
#5852 0C
#5853 0D
#5854 1C
#5855 0C
#5856 0D
#5857 1C
#5858 0C
#5859 0D
#5860 1C
#5861 0C
#5862 0D
#5863 1C
#5864 0C
#5865 0D
#5866 1C
#5867 0C
#5868 0D
#5869 1C
#5870 0C
#5871 1D
#5872 1C
#5873 0C
#5877 0D
#5878 1C
#5879 0C
#5880 0D
#5881 1C
#5882 0C
#5883 0D
#5884 1C
#5885 0C
#5886 0D
#5887 1C
#5888 0C
#5889 0D
#5890 1C
#5891 0C
#5892 0D
#5893 1C
#5894 0C
#5895 0D
#5896 1C
#5897 0C
#5898 0D
#5899 1C
#5900 0C
#5904 0D
#5905 1C
#5906 0C
#5907 0D
#5908 1C
#5909 0C
#5910 0D
#5911 1C
#5912 0C
#5913 0D
#5914 1C
#5915 0C
#5916 0D
#5917 1C
#5918 0C
#5919 0D
#5920 1C
#5921 0C
#5922 0D
#5923 1C
#5924 0C
#5925 0D
#5926 1C
#5927 0C
#5931 0D
#5932 1C
#5933 0C
#5934 0D
#5935 1C
#5936 0C
#5937 0D
#5938 1C
#5939 0C
#5940 0D
#5941 1C
#5942 0C
#5943 0D
#5944 1C
#5945 0C
#5946 0D
#5947 1C
#5948 0C
#5949 0D
#5950 1C
#5951 0C
#5952 0D
#5953 1C
#5954 0C
#9120 0D
#9121 1C
#9122 0C
#9123 0D
#9124 1C
#9125 0C
#9126 0D
#9127 1C
#9128 0C
#9129 0D
#9130 1C
#9131 0C
#9132 0D
#9133 1C
#9134 0C
#9135 1D
#9136 1C
#9137 0C
#9138 1D
#9139 1C
#9140 0C
#9141 1D
#9142 1C
#9143 0C
#9147 0D
#9148 1C
#9149 0C
#9150 0D
#9151 1C
#9152 0C
#9153 0D
#9154 1C
#9155 0C
#9156 0D
#9157 1C
#9158 0C
#9159 0D
#9160 1C
#9161 0C
#9162 1D
#9163 1C
#9164 0C
#9165 0D
#9166 1C
#9167 0C
#9168 0D
#9169 1C
#9170 0C
#9174 0D
#9175 1C
#9176 0C
#9177 0D
#9178 1C
#9179 0C
#9180 0D
#9181 1C
#9182 0C
#9183 0D
#9184 1C
#9185 0C
#9186 0D
#9187 1C
#9188 0C
#9189 0D
#9190 1C
#9191 0C
#9192 0D
#9193 1C
#9194 0C
#9195 0D
#9196 1C
#9197 0C
#9201 0D
#9202 1C
#9203 0C
#9204 0D
#9205 1C
#9206 0C
#9207 0D
#9208 1C
#9209 0C
#9210 0D
#9211 1C
#9212 0C
#9213 0D
#9214 1C
#9215 0C
#9216 0D
#9217 1C
#9218 0C
#9219 0D
#9220 1C
#9221 0C
#9222 0D
#9223 1C
#9224 0C
#9910 0D
#9911 1C
#9912 0C
#9913 0D
#9914 1C
#9915 0C
#9916 0D
#9917 1C
#9918 0C
#9919 0D
#9920 1C
#9921 0C
#9922 0D
#9923 1C
#9924 0C
#9925 0D
#9926 1C
#9927 0C
#9928 0D
#9929 1C
#9930 0C
#9931 1D
#9932 1C
#9933 0C
#9937 0D
#9938 1C
#9939 0C
#9940 0D
#9941 1C
#9942 0C
#9943 0D
#9944 1C
#9945 0C
#9946 0D
#9947 1C
#9948 0C
#9949 0D
#9950 1C
#9951 0C
#9952 0D
#9953 1C
#9954 0C
#9955 0D
#9956 1C
#9957 0C
#9958 0D
#9959 1C
#9960 0C
#9964 0D
#9965 1C
#9966 0C
#9967 0D
#9968 1C
#9969 0C
#9970 0D
#9971 1C
#9972 0C
#9973 0D
#9974 1C
#9975 0C
#9976 0D
#9977 1C
#9978 0C
#9979 0D
#9980 1C
#9981 0C
#9982 0D
#9983 1C
#9984 0C
#9985 0D
#9986 1C
#9987 0C
#9991 0D
#9992 1C
#9993 0C
#9994 0D
#9995 1C
#9996 0C
#9997 0D
#9998 1C
#9999 0C
#10000 0D
#10001 1C
#10002 0C
#10003 0D
#10004 1C
#10005 0C
#10006 0D
#10007 1C
#10008 0C
#10009 0D
#10010 1C
#10011 0C
#10012 0D
#10013 1C
#10014 0C
#13180 0D
#13181 1C
#13182 0C
#13183 0D
#13184 1C
#13185 0C
#13186 0D
#13187 1C
#13188 0C
#13189 0D
#13190 1C
#13191 0C
#13192 0D
#13193 1C
#13194 0C
#13195 1D
#13196 1C
#13197 0C
#13198 1D
#13199 1C
#13200 0C
#13201 1D
#13202 1C
#13203 0C
#13207 0D
#13208 1C
#13209 0C
#13210 0D
#13211 1C
#13212 0C
#13213 0D
#13214 1C
#13215 0C
#13216 0D
#13217 1C
#13218 0C
#13219 1D
#13220 1C
#13221 0C
#13222 0D
#13223 1C
#13224 0C
#13225 0D
#13226 1C
#13227 0C
#13228 0D
#13229 1C
#13230 0C
#13234 0D
#13235 1C
#13236 0C
#13237 0D
#13238 1C
#13239 0C
#13240 0D
#13241 1C
#13242 0C
#13243 0D
#13244 1C
#13245 0C
#13246 0D
#13247 1C
#13248 0C
#13249 0D
#13250 1C
#13251 0C
#13252 0D
#13253 1C
#13254 0C
#13255 0D
#13256 1C
#13257 0C
#13261 0D
#13262 1C
#13263 0C
#13264 0D
#13265 1C
#13266 0C
#13267 0D
#13268 1C
#13269 0C
#13270 0D
#13271 1C
#13272 0C
#13273 0D
#13274 1C
#13275 0C
#13276 0D
#13277 1C
#13278 0C
#13279 0D
#13280 1C
#13281 0C
#13282 0D
#13283 1C
#13284 0C
#13970 0D
#13971 1C
#13972 0C
#13973 0D
#13974 1C
#13975 0C
#13976 0D
#13977 1C
#13978 0C
#13979 0D
#13980 1C
#13981 0C
#13982 0D
#13983 1C
#13984 0C
#13985 0D
#13986 1C
#13987 0C
#13988 0D
#13989 1C
#13990 0C
#13991 1D
#13992 1C
#13993 0C
#13997 0D
#13998 1C
#13999 0C
#14000 0D
#14001 1C
#14002 0C
#14003 0D
#14004 1C
#14005 0C
#14006 0D
#14007 1C
#14008 0C
#14009 0D
#14010 1C
#14011 0C
#14012 0D
#14013 1C
#14014 0C
#14015 0D
#14016 1C
#14017 0C
#14018 0D
#14019 1C
#14020 0C
#14024 0D
#14025 1C
#14026 0C
#14027 0D
#14028 1C
#14029 0C
#14030 0D
#14031 1C
#14032 0C
#14033 0D
#14034 1C
#14035 0C
#14036 0D
#14037 1C
#14038 0C
#14039 0D
#14040 1C
#14041 0C
#14042 0D
#14043 1C
#14044 0C
#14045 0D
#14046 1C
#14047 0C
#14051 0D
#14052 1C
#14053 0C
#14054 0D
#14055 1C
#14056 0C
#14057 0D
#14058 1C
#14059 0C
#14060 0D
#14061 1C
#14062 0C
#14063 0D
#14064 1C
#14065 0C
#14066 0D
#14067 1C
#14068 0C
#14069 0D
#14070 1C
#14071 0C
#14072 0D
#14073 1C
#14074 0C
#17240 0D
#17241 1C
#17242 0C
#17243 0D
#17244 1C
#17245 0C
#17246 0D
#17247 1C
#17248 0C
#17249 0D
#17250 1C
#17251 0C
#17252 0D
#17253 1C
#17254 0C
#17255 1D
#17256 1C
#17257 0C
#17258 1D
#17259 1C
#17260 0C
#17261 1D
#17262 1C
#17263 0C
#17267 0D
#17268 1C
#17269 0C
#17270 0D
#17271 1C
#17272 0C
#17273 0D
#17274 1C
#17275 0C
#17276 1D
#17277 1C
#17278 0C
#17279 0D
#17280 1C
#17281 0C
#17282 0D
#17283 1C
#17284 0C
#17285 0D
#17286 1C
#17287 0C
#17288 0D
#17289 1C
#17290 0C
#17294 0D
#17295 1C
#17296 0C
#17297 0D
#17298 1C
#17299 0C
#17300 0D
#17301 1C
#17302 0C
#17303 0D
#17304 1C
#17305 0C
#17306 0D
#17307 1C
#17308 0C
#17309 0D
#17310 1C
#17311 0C
#17312 0D
#17313 1C
#17314 0C
#17315 0D
#17316 1C
#17317 0C
#17321 0D
#17322 1C
#17323 0C
#17324 0D
#17325 1C
#17326 0C
#17327 0D
#17328 1C
#17329 0C
#17330 0D
#17331 1C
#17332 0C
#17333 0D
#17334 1C
#17335 0C
#17336 0D
#17337 1C
#17338 0C
#17339 0D
#17340 1C
#17341 0C
#17342 0D
#17343 1C
#17344 0C
#18030 0D
#18031 1C
#18032 0C
#18033 0D
#18034 1C
#18035 0C
#18036 0D
#18037 1C
#18038 0C
#18039 0D
#18040 1C
#18041 0C
#18042 0D
#18043 1C
#18044 0C
#18045 0D
#18046 1C
#18047 0C
#18048 0D
#18049 1C
#18050 0C
#18051 1D
#18052 1C
#18053 0C
#18057 0D
#18058 1C
#18059 0C
#18060 0D
#18061 1C
#18062 0C
#18063 0D
#18064 1C
#18065 0C
#18066 0D
#18067 1C
#18068 0C
#18069 0D
#18070 1C
#18071 0C
#18072 0D
#18073 1C
#18074 0C
#18075 0D
#18076 1C
#18077 0C
#18078 0D
#18079 1C
#18080 0C
#18084 0D
#18085 1C
#18086 0C
#18087 0D
#18088 1C
#18089 0C
#18090 0D
#18091 1C
#18092 0C
#18093 0D
#18094 1C
#18095 0C
#18096 0D
#18097 1C
#18098 0C
#18099 0D
#18100 1C
#18101 0C
#18102 0D
#18103 1C
#18104 0C
#18105 0D
#18106 1C
#18107 0C
#18111 0D
#18112 1C
#18113 0C
#18114 0D
#18115 1C
#18116 0C
#18117 0D
#18118 1C
#18119 0C
#18120 0D
#18121 1C
#18122 0C
#18123 0D
#18124 1C
#18125 0C
#18126 0D
#18127 1C
#18128 0C
#18129 0D
#18130 1C
#18131 0C
#18132 0D
#18133 1C
#18134 0C
#21300 0D
#21301 1C
#21302 0C
#21303 0D
#21304 1C
#21305 0C
#21306 0D
#21307 1C
#21308 0C
#21309 0D
#21310 1C
#21311 0C
#21312 0D
#21313 1C
#21314 0C
#21315 1D
#21316 1C
#21317 0C
#21318 1D
#21319 1C
#21320 0C
#21321 1D
#21322 1C
#21323 0C
#21327 0D
#21328 1C
#21329 0C
#21330 0D
#21331 1C
#21332 0C
#21333 1D
#21334 1C
#21335 0C
#21336 0D
#21337 1C
#21338 0C
#21339 0D
#21340 1C
#21341 0C
#21342 0D
#21343 1C
#21344 0C
#21345 0D
#21346 1C
#21347 0C
#21348 0D
#21349 1C
#21350 0C
#21354 0D
#21355 1C
#21356 0C
#21357 0D
#21358 1C
#21359 0C
#21360 0D
#21361 1C
#21362 0C
#21363 0D
#21364 1C
#21365 0C
#21366 0D
#21367 1C
#21368 0C
#21369 0D
#21370 1C
#21371 0C
#21372 0D
#21373 1C
#21374 0C
#21375 0D
#21376 1C
#21377 0C
#21381 0D
#21382 1C
#21383 0C
#21384 0D
#21385 1C
#21386 0C
#21387 0D
#21388 1C
#21389 0C
#21390 0D
#21391 1C
#21392 0C
#21393 0D
#21394 1C
#21395 0C
#21396 0D
#21397 1C
#21398 0C
#21399 0D
#21400 1C
#21401 0C
#21402 0D
#21403 1C
#21404 0C
#22090 0D
#22091 1C
#22092 0C
#22093 0D
#22094 1C
#22095 0C
#22096 0D
#22097 1C
#22098 0C
#22099 0D
#22100 1C
#22101 0C
#22102 0D
#22103 1C
#22104 0C
#22105 0D
#22106 1C
#22107 0C
#22108 0D
#22109 1C
#22110 0C
#22111 1D
#22112 1C
#22113 0C
#22117 0D
#22118 1C
#22119 0C
#22120 0D
#22121 1C
#22122 0C
#22123 0D
#22124 1C
#22125 0C
#22126 0D
#22127 1C
#22128 0C
#22129 0D
#22130 1C
#22131 0C
#22132 0D
#22133 1C
#22134 0C
#22135 0D
#22136 1C
#22137 0C
#22138 0D
#22139 1C
#22140 0C
#22144 0D
#22145 1C
#22146 0C
#22147 0D
#22148 1C
#22149 0C
#22150 0D
#22151 1C
#22152 0C
#22153 0D
#22154 1C
#22155 0C
#22156 0D
#22157 1C
#22158 0C
#22159 0D
#22160 1C
#22161 0C
#22162 0D
#22163 1C
#22164 0C
#22165 0D
#22166 1C
#22167 0C
#22171 0D
#22172 1C
#22173 0C
#22174 0D
#22175 1C
#22176 0C
#22177 0D
#22178 1C
#22179 0C
#22180 0D
#22181 1C
#22182 0C
#22183 0D
#22184 1C
#22185 0C
#22186 0D
#22187 1C
#22188 0C
#22189 0D
#22190 1C
#22191 0C
#22192 0D
#22193 1C
#22194 0C
#25360 0D
#25361 1C
#25362 0C
#25363 0D
#25364 1C
#25365 0C
#25366 0D
#25367 1C
#25368 0C
#25369 0D
#25370 1C
#25371 0C
#25372 0D
#25373 1C
#25374 0C
#25375 1D
#25376 1C
#25377 0C
#25378 1D
#25379 1C
#25380 0C
#25381 1D
#25382 1C
#25383 0C
#25387 0D
#25388 1C
#25389 0C
#25390 1D
#25391 1C
#25392 0C
#25393 0D
#25394 1C
#25395 0C
#25396 0D
#25397 1C
#25398 0C
#25399 0D
#25400 1C
#25401 0C
#25402 0D
#25403 1C
#25404 0C
#25405 0D
#25406 1C
#25407 0C
#25408 0D
#25409 1C
#25410 0C
#25414 0D
#25415 1C
#25416 0C
#25417 0D
#25418 1C
#25419 0C
#25420 0D
#25421 1C
#25422 0C
#25423 0D
#25424 1C
#25425 0C
#25426 0D
#25427 1C
#25428 0C
#25429 0D
#25430 1C
#25431 0C
#25432 0D
#25433 1C
#25434 0C
#25435 0D
#25436 1C
#25437 0C
#25441 0D
#25442 1C
#25443 0C
#25444 0D
#25445 1C
#25446 0C
#25447 0D
#25448 1C
#25449 0C
#25450 0D
#25451 1C
#25452 0C
#25453 0D
#25454 1C
#25455 0C
#25456 0D
#25457 1C
#25458 0C
#25459 0D
#25460 1C
#25461 0C
#25462 0D
#25463 1C
#25464 0C
#26150 0D
#26151 1C
#26152 0C
#26153 0D
#26154 1C
#26155 0C
#26156 0D
#26157 1C
#26158 0C
#26159 0D
#26160 1C
#26161 0C
#26162 0D
#26163 1C
#26164 0C
#26165 0D
#26166 1C
#26167 0C
#26168 0D
#26169 1C
#26170 0C
#26171 1D
#26172 1C
#26173 0C
#26177 0D
#26178 1C
#26179 0C
#26180 0D
#26181 1C
#26182 0C
#26183 0D
#26184 1C
#26185 0C
#26186 0D
#26187 1C
#26188 0C
#26189 0D
#26190 1C
#26191 0C
#26192 0D
#26193 1C
#26194 0C
#26195 0D
#26196 1C
#26197 0C
#26198 0D
#26199 1C
#26200 0C
#26204 0D
#26205 1C
#26206 0C
#26207 0D
#26208 1C
#26209 0C
#26210 0D
#26211 1C
#26212 0C
#26213 0D
#26214 1C
#26215 0C
#26216 0D
#26217 1C
#26218 0C
#26219 0D
#26220 1C
#26221 0C
#26222 0D
#26223 1C
#26224 0C
#26225 0D
#26226 1C
#26227 0C
#26231 0D
#26232 1C
#26233 0C
#26234 0D
#26235 1C
#26236 0C
#26237 0D
#26238 1C
#26239 0C
#26240 0D
#26241 1C
#26242 0C
#26243 0D
#26244 1C
#26245 0C
#26246 0D
#26247 1C
#26248 0C
#26249 0D
#26250 1C
#26251 0C
#26252 0D
#26253 1C
#26254 0C
#29420 0D
#29421 1C
#29422 0C
#29423 0D
#29424 1C
#29425 0C
#29426 0D
#29427 1C
#29428 0C
#29429 0D
#29430 1C
#29431 0C
#29432 0D
#29433 1C
#29434 0C
#29435 1D
#29436 1C
#29437 0C
#29438 1D
#29439 1C
#29440 0C
#29441 1D
#29442 1C
#29443 0C
#29447 1D
#29448 1C
#29449 0C
#29450 0D
#29451 1C
#29452 0C
#29453 0D
#29454 1C
#29455 0C
#29456 0D
#29457 1C
#29458 0C
#29459 0D
#29460 1C
#29461 0C
#29462 0D
#29463 1C
#29464 0C
#29465 0D
#29466 1C
#29467 0C
#29468 0D
#29469 1C
#29470 0C
#29474 0D
#29475 1C
#29476 0C
#29477 0D
#29478 1C
#29479 0C
#29480 0D
#29481 1C
#29482 0C
#29483 0D
#29484 1C
#29485 0C
#29486 0D
#29487 1C
#29488 0C
#29489 0D
#29490 1C
#29491 0C
#29492 0D
#29493 1C
#29494 0C
#29495 0D
#29496 1C
#29497 0C
#29501 0D
#29502 1C
#29503 0C
#29504 0D
#29505 1C
#29506 0C
#29507 0D
#29508 1C
#29509 0C
#29510 0D
#29511 1C
#29512 0C
#29513 0D
#29514 1C
#29515 0C
#29516 0D
#29517 1C
#29518 0C
#29519 0D
#29520 1C
#29521 0C
#29522 0D
#29523 1C
#29524 0C
#30210 0D
#30211 1C
#30212 0C
#30213 0D
#30214 1C
#30215 0C
#30216 0D
#30217 1C
#30218 0C
#30219 0D
#30220 1C
#30221 0C
#30222 0D
#30223 1C
#30224 0C
#30225 0D
#30226 1C
#30227 0C
#30228 0D
#30229 1C
#30230 0C
#30231 1D
#30232 1C
#30233 0C
#30237 0D
#30238 1C
#30239 0C
#30240 0D
#30241 1C
#30242 0C
#30243 0D
#30244 1C
#30245 0C
#30246 0D
#30247 1C
#30248 0C
#30249 0D
#30250 1C
#30251 0C
#30252 0D
#30253 1C
#30254 0C
#30255 0D
#30256 1C
#30257 0C
#30258 0D
#30259 1C
#30260 0C
#30264 0D
#30265 1C
#30266 0C
#30267 0D
#30268 1C
#30269 0C
#30270 0D
#30271 1C
#30272 0C
#30273 0D
#30274 1C
#30275 0C
#30276 0D
#30277 1C
#30278 0C
#30279 0D
#30280 1C
#30281 0C
#30282 0D
#30283 1C
#30284 0C
#30285 0D
#30286 1C
#30287 0C
#30291 0D
#30292 1C
#30293 0C
#30294 0D
#30295 1C
#30296 0C
#30297 0D
#30298 1C
#30299 0C
#30300 0D
#30301 1C
#30302 0C
#30303 0D
#30304 1C
#30305 0C
#30306 0D
#30307 1C
#30308 0C
#30309 0D
#30310 1C
#30311 0C
#30312 0D
#30313 1C
#30314 0C
#1000000 0D 0C
