traces/phase_test.vcd
$timescale 1us $end
$scope module logic $end
	$var wire 1 D iogB_0 $end
	$var wire 1 C iogB_2 $end
$upscope $end
$enddefinitions $end
$dumpvars
	0D
	0C
$end
#1000 0D
#1001 1C
#1002 0C
#1003 0D
#1004 1C
#1005 0C
#1006 0D
#1007 1C
#1008 0C
#1009 0D
#1010 1C
#1011 0C
#1012 0D
#1013 1C
#1014 0C
#1015 0D
#1016 1C
#1017 0C
#1018 0D
#1019 1C
#1020 0C
#1021 0D
#1022 1C
#1023 0C
#1027 0D
#1028 1C
#1029 0C
#1030 0D
#1031 1C
#1032 0C
#1033 0D
#1034 1C
#1035 0C
#1036 0D
#1037 1C
#1038 0C
#1039 0D
#1040 1C
#1041 0C
#1042 0D
#1043 1C
#1044 0C
#1045 0D
#1046 1C
#1047 0C
#1048 0D
#1049 1C
#1050 0C
#1054 0D
#1055 1C
#1056 0C
#1057 0D
#1058 1C
#1059 0C
#1060 0D
#1061 1C
#1062 0C
#1063 0D
#1064 1C
#1065 0C
#1066 0D
#1067 1C
#1068 0C
#1069 0D
#1070 1C
#1071 0C
#1072 0D
#1073 1C
#1074 0C
#1075 0D
#1076 1C
#1077 0C
#1081 0D
#1082 1C
#1083 0C
#1084 0D
#1085 1C
#1086 0C
#1087 0D
#1088 1C
#1089 0C
#1090 0D
#1091 1C
#1092 0C
#1093 0D
#1094 1C
#1095 0C
#1096 0D
#1097 1C
#1098 0C
#1099 0D
#1100 1C
#1101 0C
#1102 0D
#1103 1C
#1104 0C
#1790 0D
#1791 1C
#1792 0C
#1793 0D
#1794 1C
#1795 0C
#1796 0D
#1797 1C
#1798 0C
#1799 0D
#1800 1C
#1801 0C
#1802 0D
#1803 1C
#1804 0C
#1805 1D
#1806 1C
#1807 0C
#1808 1D
#1809 1C
#1810 0C
#1811 1D
#1812 1C
#1813 0C
#1817 0D
#1818 1C
#1819 0C
#1820 0D
#1821 1C
#1822 0C
#1823 0D
#1824 1C
#1825 0C
#1826 0D
#1827 1C
#1828 0C
#1829 0D
#1830 1C
#1831 0C
#1832 0D
#1833 1C
#1834 0C
#1835 0D
#1836 1C
#1837 0C
#1838 1D
#1839 1C
#1840 0C
#1844 0D
#1845 1C
#1846 0C
#1847 0D
#1848 1C
#1849 0C
#1850 0D
#1851 1C
#1852 0C
#1853 0D
#1854 1C
#1855 0C
#1856 0D
#1857 1C
#1858 0C
#1859 0D
#1860 1C
#1861 0C
#1862 0D
#1863 1C
#1864 0C
#1865 0D
#1866 1C
#1867 0C
#1871 0D
#1872 1C
#1873 0C
#1874 0D
#1875 1C
#1876 0C
#1877 0D
#1878 1C
#1879 0C
#1880 0D
#1881 1C
#1882 0C
#1883 0D
#1884 1C
#1885 0C
#1886 0D
#1887 1C
#1888 0C
#1889 0D
#1890 1C
#1891 0C
#1892 0D
#1893 1C
#1894 0C
#1960 0D
#1961 1C
#1962 0C
#1963 0D
#1964 1C
#1965 0C
#1966 0D
#1967 1C
#1968 0C
#1969 0D
#1970 1C
#1971 0C
#1972 0D
#1973 1C
#1974 0C
#1975 0D
#1976 1C
#1977 0C
#1978 0D
#1979 1C
#1980 0C
#1981 1D
#1982 1C
#1983 0C
#1987 0D
#1988 1C
#1989 0C
#1990 0D
#1991 1C
#1992 0C
#1993 0D
#1994 1C
#1995 0C
#1996 0D
#1997 1C
#1998 0C
#1999 0D
#2000 1C
#2001 0C
#2002 0D
#2003 1C
#2004 0C
#2005 0D
#2006 1C
#2007 0C
#2008 0D
#2009 1C
#2010 0C
#2014 0D
#2015 1C
#2016 0C
#2017 0D
#2018 1C
#2019 0C
#2020 0D
#2021 1C
#2022 0C
#2023 0D
#2024 1C
#2025 0C
#2026 0D
#2027 1C
#2028 0C
#2029 0D
#2030 1C
#2031 0C
#2032 0D
#2033 1C
#2034 0C
#2035 0D
#2036 1C
#2037 0C
#2041 0D
#2042 1C
#2043 0C
#2044 0D
#2045 1C
#2046 0C
#2047 0D
#2048 1C
#2049 0C
#2050 0D
#2051 1C
#2052 0C
#2053 0D
#2054 1C
#2055 0C
#2056 0D
#2057 1C
#2058 0C
#2059 0D
#2060 1C
#2061 0C
#2062 0D
#2063 1C
#2064 0C
#2750 1D
#2751 1C
#2752 0C
#2753 0D
#2754 1C
#2755 0C
#2756 0D
#2757 1C
#2758 0C
#2759 0D
#2760 1C
#2761 0C
#2762 0D
#2763 1C
#2764 0C
#2765 0D
#2766 1C
#2767 0C
#2768 0D
#2769 1C
#2770 0C
#2771 0D
#2772 1C
#2773 0C
#2777 0D
#2778 1C
#2779 0C
#2780 0D
#2781 1C
#2782 0C
#2783 0D
#2784 1C
#2785 0C
#2786 0D
#2787 1C
#2788 0C
#2789 0D
#2790 1C
#2791 0C
#2792 0D
#2793 1C
#2794 0C
#2795 0D
#2796 1C
#2797 0C
#2798 0D
#2799 1C
#2800 0C
#2804 0D
#2805 1C
#2806 0C
#2807 0D
#2808 1C
#2809 0C
#2810 0D
#2811 1C
#2812 0C
#2813 0D
#2814 1C
#2815 0C
#2816 0D
#2817 1C
#2818 0C
#2819 0D
#2820 1C
#2821 0C
#2822 0D
#2823 1C
#2824 0C
#2825 0D
#2826 1C
#2827 0C
#2831 0D
#2832 1C
#2833 0C
#2834 0D
#2835 1C
#2836 0C
#2837 0D
#2838 1C
#2839 0C
#2840 0D
#2841 1C
#2842 0C
#2843 0D
#2844 1C
#2845 0C
#2846 0D
#2847 1C
#2848 0C
#2849 0D
#2850 1C
#2851 0C
#2852 1D
#2853 1C
#2854 0C
#2920 0D
#2921 1C
#2922 0C
#2923 0D
#2924 1C
#2925 0C
#2926 0D
#2927 1C
#2928 0C
#2929 0D
#2930 1C
#2931 0C
#2932 0D
#2933 1C
#2934 0C
#2935 0D
#2936 1C
#2937 0C
#2938 0D
#2939 1C
#2940 0C
#2941 1D
#2942 1C
#2943 0C
#2947 0D
#2948 1C
#2949 0C
#2950 0D
#2951 1C
#2952 0C
#2953 0D
#2954 1C
#2955 0C
#2956 0D
#2957 1C
#2958 0C
#2959 0D
#2960 1C
#2961 0C
#2962 0D
#2963 1C
#2964 0C
#2965 0D
#2966 1C
#2967 0C
#2968 0D
#2969 1C
#2970 0C
#2974 0D
#2975 1C
#2976 0C
#2977 0D
#2978 1C
#2979 0C
#2980 0D
#2981 1C
#2982 0C
#2983 0D
#2984 1C
#2985 0C
#2986 0D
#2987 1C
#2988 0C
#2989 0D
#2990 1C
#2991 0C
#2992 0D
#2993 1C
#2994 0C
#2995 0D
#2996 1C
#2997 0C
#3001 0D
#3002 1C
#3003 0C
#3004 0D
#3005 1C
#3006 0C
#3007 0D
#3008 1C
#3009 0C
#3010 0D
#3011 1C
#3012 0C
#3013 0D
#3014 1C
#3015 0C
#3016 0D
#3017 1C
#3018 0C
#3019 0D
#3020 1C
#3021 0C
#3022 0D
#3023 1C
#3024 0C
#34090 1D
#34091 1C
#34092 0C
#34093 0D
#34094 1C
#34095 0C
#34096 0D
#34097 1C
#34098 0C
#34099 0D
#34100 1C
#34101 0C
#34102 0D
#34103 1C
#34104 0C
#34105 0D
#34106 1C
#34107 0C
#34108 0D
#34109 1C
#34110 0C
#34111 0D
#34112 1C
#34113 0C
#34117 0D
#34118 1C
#34119 0C
#34120 0D
#34121 1C
#34122 0C
#34123 0D
#34124 1C
#34125 0C
#34126 0D
#34127 1C
#34128 0C
#34129 0D
#34130 1C
#34131 0C
#34132 0D
#34133 1C
#34134 0C
#34135 0D
#34136 1C
#34137 0C
#34138 0D
#34139 1C
#34140 0C
#34144 0D
#34145 1C
#34146 0C
#34147 1D
#34148 1C
#34149 0C
#34150 0D
#34151 1C
#34152 0C
#34153 0D
#34154 1C
#34155 0C
#34156 0D
#34157 1C
#34158 0C
#34159 0D
#34160 1C
#34161 0C
#34162 0D
#34163 1C
#34164 0C
#34165 0D
#34166 1C
#34167 0C
#34171 0D
#34172 1C
#34173 0C
#34174 0D
#34175 1C
#34176 0C
#34177 0D
#34178 1C
#34179 0C
#34180 0D
#34181 1C
#34182 0C
#34183 0D
#34184 1C
#34185 0C
#34186 0D
#34187 1C
#34188 0C
#34189 0D
#34190 1C
#34191 0C
#34192 0D
#34193 1C
#34194 0C
#34260 0D
#34261 1C
#34262 0C
#34263 0D
#34264 1C
#34265 0C
#34266 0D
#34267 1C
#34268 0C
#34269 0D
#34270 1C
#34271 0C
#34272 0D
#34273 1C
#34274 0C
#34275 0D
#34276 1C
#34277 0C
#34278 0D
#34279 1C
#34280 0C
#34281 1D
#34282 1C
#34283 0C
#34287 0D
#34288 1C
#34289 0C
#34290 0D
#34291 1C
#34292 0C
#34293 0D
#34294 1C
#34295 0C
#34296 0D
#34297 1C
#34298 0C
#34299 0D
#34300 1C
#34301 0C
#34302 0D
#34303 1C
#34304 0C
#34305 0D
#34306 1C
#34307 0C
#34308 0D
#34309 1C
#34310 0C
#34314 0D
#34315 1C
#34316 0C
#34317 0D
#34318 1C
#34319 0C
#34320 0D
#34321 1C
#34322 0C
#34323 0D
#34324 1C
#34325 0C
#34326 0D
#34327 1C
#34328 0C
#34329 0D
#34330 1C
#34331 0C
#34332 0D
#34333 1C
#34334 0C
#34335 0D
#34336 1C
#34337 0C
#34341 0D
#34342 1C
#34343 0C
#34344 0D
#34345 1C
#34346 0C
#34347 0D
#34348 1C
#34349 0C
#34350 0D
#34351 1C
#34352 0C
#34353 0D
#34354 1C
#34355 0C
#34356 0D
#34357 1C
#34358 0C
#34359 0D
#34360 1C
#34361 0C
#34362 0D
#34363 1C
#34364 0C
#65430 1D
#65431 1C
#65432 0C
#65433 0D
#65434 1C
#65435 0C
#65436 0D
#65437 1C
#65438 0C
#65439 0D
#65440 1C
#65441 0C
#65442 0D
#65443 1C
#65444 0C
#65445 0D
#65446 1C
#65447 0C
#65448 0D
#65449 1C
#65450 0C
#65451 1D
#65452 1C
#65453 0C
#65457 0D
#65458 1C
#65459 0C
#65460 0D
#65461 1C
#65462 0C
#65463 0D
#65464 1C
#65465 0C
#65466 0D
#65467 1C
#65468 0C
#65469 0D
#65470 1C
#65471 0C
#65472 0D
#65473 1C
#65474 0C
#65475 0D
#65476 1C
#65477 0C
#65478 0D
#65479 1C
#65480 0C
#65484 0D
#65485 1C
#65486 0C
#65487 0D
#65488 1C
#65489 0C
#65490 0D
#65491 1C
#65492 0C
#65493 0D
#65494 1C
#65495 0C
#65496 0D
#65497 1C
#65498 0C
#65499 0D
#65500 1C
#65501 0C
#65502 0D
#65503 1C
#65504 0C
#65505 0D
#65506 1C
#65507 0C
#65511 0D
#65512 1C
#65513 0C
#65514 0D
#65515 1C
#65516 0C
#65517 0D
#65518 1C
#65519 0C
#65520 0D
#65521 1C
#65522 0C
#65523 0D
#65524 1C
#65525 0C
#65526 0D
#65527 1C
#65528 0C
#65529 0D
#65530 1C
#65531 0C
#65532 0D
#65533 1C
#65534 0C
#65600 0D
#65601 1C
#65602 0C
#65603 0D
#65604 1C
#65605 0C
#65606 0D
#65607 1C
#65608 0C
#65609 0D
#65610 1C
#65611 0C
#65612 0D
#65613 1C
#65614 0C
#65615 0D
#65616 1C
#65617 0C
#65618 0D
#65619 1C
#65620 0C
#65621 1D
#65622 1C
#65623 0C
#65627 0D
#65628 1C
#65629 0C
#65630 0D
#65631 1C
#65632 0C
#65633 0D
#65634 1C
#65635 0C
#65636 0D
#65637 1C
#65638 0C
#65639 0D
#65640 1C
#65641 0C
#65642 0D
#65643 1C
#65644 0C
#65645 0D
#65646 1C
#65647 0C
#65648 0D
#65649 1C
#65650 0C
#65654 0D
#65655 1C
#65656 0C
#65657 0D
#65658 1C
#65659 0C
#65660 0D
#65661 1C
#65662 0C
#65663 0D
#65664 1C
#65665 0C
#65666 0D
#65667 1C
#65668 0C
#65669 0D
#65670 1C
#65671 0C
#65672 0D
#65673 1C
#65674 0C
#65675 0D
#65676 1C
#65677 0C
#65681 0D
#65682 1C
#65683 0C
#65684 0D
#65685 1C
#65686 0C
#65687 0D
#65688 1C
#65689 0C
#65690 0D
#65691 1C
#65692 0C
#65693 0D
#65694 1C
#65695 0C
#65696 0D
#65697 1C
#65698 0C
#65699 0D
#65700 1C
#65701 0C
#65702 0D
#65703 1C
#65704 0C
#96770 1D
#96771 1C
#96772 0C
#96773 0D
#96774 1C
#96775 0C
#96776 0D
#96777 1C
#96778 0C
#96779 0D
#96780 1C
#96781 0C
#96782 0D
#96783 1C
#96784 0C
#96785 0D
#96786 1C
#96787 0C
#96788 1D
#96789 1C
#96790 0C
#96791 0D
#96792 1C
#96793 0C
#96797 0D
#96798 1C
#96799 0C
#96800 0D
#96801 1C
#96802 0C
#96803 0D
#96804 1C
#96805 0C
#96806 0D
#96807 1C
#96808 0C
#96809 0D
#96810 1C
#96811 0C
#96812 0D
#96813 1C
#96814 0C
#96815 0D
#96816 1C
#96817 0C
#96818 0D
#96819 1C
#96820 0C
#96824 0D
#96825 1C
#96826 0C
#96827 0D
#96828 1C
#96829 0C
#96830 0D
#96831 1C
#96832 0C
#96833 0D
#96834 1C
#96835 0C
#96836 0D
#96837 1C
#96838 0C
#96839 0D
#96840 1C
#96841 0C
#96842 0D
#96843 1C
#96844 0C
#96845 0D
#96846 1C
#96847 0C
#96851 0D
#96852 1C
#96853 0C
#96854 0D
#96855 1C
#96856 0C
#96857 0D
#96858 1C
#96859 0C
#96860 0D
#96861 1C
#96862 0C
#96863 0D
#96864 1C
#96865 0C
#96866 0D
#96867 1C
#96868 0C
#96869 0D
#96870 1C
#96871 0C
#96872 1D
#96873 1C
#96874 0C
#96940 0D
#96941 1C
#96942 0C
#96943 0D
#96944 1C
#96945 0C
#96946 0D
#96947 1C
#96948 0C
#96949 0D
#96950 1C
#96951 0C
#96952 0D
#96953 1C
#96954 0C
#96955 0D
#96956 1C
#96957 0C
#96958 0D
#96959 1C
#96960 0C
#96961 1D
#96962 1C
#96963 0C
#96967 0D
#96968 1C
#96969 0C
#96970 0D
#96971 1C
#96972 0C
#96973 0D
#96974 1C
#96975 0C
#96976 0D
#96977 1C
#96978 0C
#96979 0D
#96980 1C
#96981 0C
#96982 0D
#96983 1C
#96984 0C
#96985 0D
#96986 1C
#96987 0C
#96988 0D
#96989 1C
#96990 0C
#96994 0D
#96995 1C
#96996 0C
#96997 0D
#96998 1C
#96999 0C
#97000 0D
#97001 1C
#97002 0C
#97003 0D
#97004 1C
#97005 0C
#97006 0D
#97007 1C
#97008 0C
#97009 0D
#97010 1C
#97011 0C
#97012 0D
#97013 1C
#97014 0C
#97015 0D
#97016 1C
#97017 0C
#97021 0D
#97022 1C
#97023 0C
#97024 0D
#97025 1C
#97026 0C
#97027 0D
#97028 1C
#97029 0C
#97030 0D
#97031 1C
#97032 0C
#97033 0D
#97034 1C
#97035 0C
#97036 0D
#97037 1C
#97038 0C
#97039 0D
#97040 1C
#97041 0C
#97042 0D
#97043 1C
#97044 0C
#1000000 0D 0C
